[gd_resource type="Resource" load_steps=3 format=3 uid="uid://dxwlilmxy0ngo"]

[ext_resource type="Texture2D" uid="uid://ibepbb4loie8" path="res://Assets/Sprites/Crafting/Materials/Stone.png" id="1"]
[ext_resource type="Script" path="res://CSharp/Resources/Definitions/ItemData.cs" id="2_pcg6p"]

[resource]
script = ExtResource("2_pcg6p")
Id = "RM00001"
Name = "Stone"
Icon = ExtResource("1")
StackLimit = 100
AssetPath = "res://Scenes/Crafting/Raw Materials/Stone.tscn"
