[gd_resource type="Resource" load_steps=2 format=3 uid="uid://c8np6vxqmbukr"]

[ext_resource type="Script" path="res://CSharp/Resources/Definitions/Inventory.cs" id="1_t0hsi"]

[resource]
script = ExtResource("1_t0hsi")
InventorySize = 0
