[gd_scene load_steps=3 format=3 uid="uid://cdo761cq74edf"]

[ext_resource type="Texture2D" uid="uid://chfmyeotrycqt" path="res://Assets/Sprites/UI/InventorySlot.png" id="1"]
[ext_resource type="Script" path="res://CSharp/UI/Player/AbilitySlot.cs" id="2_tjknc"]

[node name="AbilitySlot" type="TextureButton"]
anchors_preset = 15
anchor_right = 1.0
anchor_bottom = 1.0
grow_horizontal = 2
grow_vertical = 2
size_flags_horizontal = 4
size_flags_vertical = 4
disabled = true
texture_disabled = ExtResource("1")
script = ExtResource("2_tjknc")

[node name="Icon" type="TextureRect" parent="."]
layout_mode = 0
offset_right = 32.0
offset_bottom = 32.0

[node name="TextureProgress" type="TextureProgressBar" parent="."]
modulate = Color(0.109804, 0.109804, 0.109804, 0.705882)
layout_mode = 1
offset_right = 32.0
offset_bottom = 32.0
fill_mode = 5
nine_patch_stretch = true

[node name="Timer" type="Timer" parent="."]
