[gd_resource type="StyleBoxFlat" format=2]

[resource]
bg_color = Color( 0.341176, 0.160784, 0.0431373, 1 )
border_width_left = 1
border_width_top = 1
border_width_right = 1
border_width_bottom = 1
border_color = Color( 0.121569, 0.0588235, 0.0156863, 1 )
corner_radius_top_left = 5
corner_radius_top_right = 5
corner_radius_bottom_right = 5
corner_radius_bottom_left = 5
