[gd_resource type="Resource" load_steps=3 format=3 uid="uid://dslkv7jn47ckw"]

[ext_resource type="Script" path="res://CSharp/Resources/Definitions/BuildingData.cs" id="1_br1da"]
[ext_resource type="Texture2D" uid="uid://w26p0w5lso6u" path="res://Assets/Sprites/Construction/Furnace-Icon.png" id="2"]

[resource]
script = ExtResource("1_br1da")
BaseHealth = 100
Id = "BD00003"
Name = "Furnace"
Icon = ExtResource("2")
StackLimit = 100
AssetPath = "res://Scenes/Constructions/Furnace.tscn"
