[gd_scene load_steps=8 format=3 uid="uid://dt6ft4j4a4kn3"]

[ext_resource type="Texture2D" uid="uid://bjnrqfn2mw7ty" path="res://Assets/Sprites/Construction/Generator.png" id="1"]
[ext_resource type="Script" path="res://CSharp/Construction/SmallGenerator/GeneratorController.cs" id="1_xwl1s"]
[ext_resource type="Resource" uid="uid://cnij7ymitvnpp" path="res://Resources/Items/Buildings/SmallGeneratorData.tres" id="2"]
[ext_resource type="Resource" uid="uid://c8np6vxqmbukr" path="res://Resources/Player/PlayerInventory.tres" id="3"]

[sub_resource type="SpriteFrames" id="1"]
animations = [{
"frames": [{
"duration": 1.0,
"texture": ExtResource("1")
}],
"loop": true,
"name": &"default",
"speed": 5.0
}]

[sub_resource type="RectangleShape2D" id="2"]
size = Vector2(30, 14)

[sub_resource type="RectangleShape2D" id="3"]
size = Vector2(30, 14)

[node name="GeneratorSmall" type="Area2D"]
collision_layer = 4
collision_mask = 12
script = ExtResource("1_xwl1s")
PlayerInventory = ExtResource("3")
DestroyBaseTime = 2.0
powerCapacity = 100
GeneratorData = ExtResource("2")

[node name="TextureRect" type="TextureRect" parent="."]
texture = ExtResource("1")
expand_mode = 1

[node name="AnimatedSprite" type="AnimatedSprite2D" parent="."]
z_index = 5
scale = Vector2(0.937517, 0.876148)
sprite_frames = SubResource("1")

[node name="CollisionShape2D" type="CollisionShape2D" parent="."]
shape = SubResource("2")

[node name="PowerSource" type="Area2D" parent="." groups=["PowerSource"]]
show_behind_parent = true
collision_layer = 16
collision_mask = 16
input_pickable = false

[node name="CollisionShape2D" type="CollisionShape2D" parent="PowerSource"]
show_behind_parent = true
shape = SubResource("3")
